…
6. How many of each species are on each homeworld? 


```
#> # A tibble: 58 x 3
#>    species  homeworld     n
#>    <chr>    <chr>     <int>
#>  1 Human    Tatooine      8
#>  2 Human    Naboo         5
#>  3 Human    <NA>          5
#>  4 Droid    <NA>          3
#>  5 Gungan   Naboo         3
#>  6 Human    Alderaan      3
#>  7 Droid    Tatooine      2
#>  8 Human    Corellia      2
#>  9 Human    Coruscant     2
#> 10 Kaminoan Kamino        2
#> # ... with 48 more rows
```
…
