Chapter 21 Practice Final Exam | BADM 371 Intro to Data Analytics
…
#> # A tibble: 6 x 7
#>   species    mass height height.in height.in.squar~ mass.lbs
#>   <chr>     <dbl>  <int>     <dbl>            <dbl>    <dbl>
#> 1 Hutt       1358    175      68.9            4747.   2994. 
#> 2 Vulptere~    45     94      37.0            1370.     99.2
#> 3 Yoda's s~    17     66      26.0             675.     37.5
#> 4 Human       120    178      70.1            4911.    265. 
#> 5 Droid       140    200      78.7            6200.    309. 
#> 6 Droid        32     96      37.8            1428.     70.5
#> # ... with 1 more variable: bmi <dbl>

How many of each species are on each homeworld?

#> # A tibble: 58 x 3
#>    species  homeworld     n
#>    <chr>    <chr>     <int>
#>  1 Human    Tatooine      8
#>  2 Human    Naboo         5
#>  3 Human    <NA>          5
#>  4 Droid    <NA>          3
#>  5 Gungan   Naboo         3
#>  6 Human    Alderaan      3
#>  7 Droid    Tatooine      2
#>  8 Human    Corellia      2
#>  9 Human    Coruscant     2
#> 10 Kaminoan Kamino        2
#> # ... with 48 more rows
…
